[
  {
    "name": "Spoingus",
    "id": "1",
    "pokemonType": "3",
    "trainerId": "2",
    "created": "24/04/2024",
    "lastUpDate": "24/04/2024"
  },
  {
    "name": "Blorg",
    "id": "2",
    "pokemonType": "2",
    "trainerId": "2",
    "created": "24/04/2024",
    "lastUpDate": "24/04/2024"
  },
  {
    "name": "Froug",
    "id": "3",
    "pokemonType": "1",
    "trainerId": "1",
    "created": "24/04/2024",
    "lastUpDate": "24/04/2024"
  }
]